[
  {
    "login_empty_username": [
      {
        "Username": " ",
        "password": "admin123"
      }
    ]
  },

  {
    "login_empty_password": [
      {
        "Username": "9911114530",
        "password": " "
      }
    ]
  },

  {
    "login_wrong_username": [
      {
        "Username": "9888888880",
        "password": "admin123"
      }
    ]
  },

  {
    "login_wrong_password": [
      {
        "Username": "8700857940",
        "password": "cypress"
      }
    ]
  },

  {
    "login_incorrect_details": [
      {
        "Username": "9888888880",
        "password": "cypresd"
      }
    ]
  },

  {
    "login_correct_details": [
      {
        "Username": "8700857940",
        "password": "admin123"
      }
    ]
  }
]
