[
  {
    "name_empty": [
      {
        "name": " ",
        "mobile": "9816421571",
        "email": "k@y.com",
        "password": "cypress",
        "repassword": "cypress"
      }
    ]
  },

  {
    "mobile_empty": [
      {
        "name": "abcd",
        "mobile": " ",
        "email": "n@ail.com",
        "password": "cypress",
        "repassword": "cypress"
      }
    ]
  },

  {
    "register_wrong_mobile": [
      {
        "name": "test",
        "mobile": "988812712",
        "email": "fg@gmail.com",
        "password": "cypress",
        "repassword": "cypress"
      }
    ]
  },

  {
    "alphabets_mobile": [
      {
        "name": "test",
        "mobile": "afdsgdfght",
        "email": "fg@gmail.com",
        "password": "cypress",
        "repassword": "cypress"
      }
    ]
  },

  {
    "email_empty": [
      {
        "name": "test",
        "mobile": "9888127121",
        "email": " ",
        "password": "cypress",
        "repassword": "cypress"
      }
    ]
  },

  {
    "register_wrong_email": [
      {
        "name": "test",
        "mobile": "9858461257",
        "email": "fg.com",
        "password": "cypress",
        "repassword": "cypress"
      }
    ]
  },

  {
    "password_empty": [
      {
        "name": "test",
        "mobile": "9888127121",
        "email": "fg@gmail.com",
        "password": " ",
        "repassword": "cypress"
      }
    ]
  },

  {
    "register_wrong_password": [
      {
        "name": "test",
        "mobile": "9888127121",
        "email": "fg@gmail.com",
        "password": "cyp",
        "repassword": "cypress"
      }
    ]
  },

  {
    "repassword_empty": [
      {
        "name": "test",
        "mobile": "9888127121",
        "email": "fg@gmail.com",
        "password": "cypress",
        "repassword": " "
      }
    ]
  },

  {
    "wrong_repassword": [
      {
        "name": "test",
        "mobile": "9888127121",
        "email": "fg@gmail.com",
        "password": "cypress",
        "repassword": "dsvgd"
      }
    ]
  },

  {
    "same_mobile": [
      {
        "name": "tdt",
        "mobile": "8700857940",
        "email": "k@w.com",
        "password": "cypress",
        "repassword": "cypress"
      }
    ]
  },

  {
    "register_same_email": [
      {
        "name": "test",
        "mobile": "9858461257",
        "email": "fg@gmail.com",
        "password": "cypress",
        "repassword": "cypress"
      }
    ]
  },

  {
    "register_correct": [
      {
        "name": "test",
        "mobile": "9888888888",
        "email": "pr@gmail.com",
        "password": "cypress",
        "repassword": "cypress"
      }
    ]
  }
]
